Functions in R and your first scraper
…
```r
library(rvest)

bbwaa_scraper <- function(url) {
  site <- read_html(url)
  bbwaa <- site %>% html_element("#hof_BBWAA") %>% html_table()
  
  bbwaa
}

bbwaa_scraper("https://www.baseball-reference.com/awards/hof_2024.shtml")
```

```
## # A tibble: 27 × 39
##    ``    ``          ``    ``    ``    ``    ``    ``    ``    ``    ``    ``   
##    <chr> <chr>       <chr> <chr> <chr> <chr> <chr> <chr> <chr> <chr> <chr> <chr>
##  1 Rk    Name        YoB   Votes %vote HOFm  HOFs  Yrs   WAR   WAR7  JAWS  Jpos 
##  2 1     Adrian Bel… 1st   366   95.1% 163   55    21    93.7  48.9  71.3  56.1 
##  3 2     Todd Helton 6th   307   79.7% 175   59    17    61.8  46.6  54.2  53.5 
##  4 3     Joe Mauer   1st   293   76.1% 92    41    15    55.6  39.1  47.4  44.3 
##  5 4     Billy Wagn… 9th   284   73.8% 107   24    16    27.7  19.8  23.7  31.6 
##  6 5     X-Gary She… 10th  246   63.9% 158   61    22    60.5  38.0  49.3  56.0 
##  7 6     Andruw Jon… 7th   237   61.6% 109   34    17    62.7  46.4  54.6  58.0 
##  8 7     Carlos Bel… 2nd   220   57.1% 126   52    20    70.0  44.4  57.2  58.0 
##  9 8     Alex Rodri… 3rd   134   34.8% 390   77    22    117.4 64.3  90.8  55.4 
## 10 9     Manny Rami… 8th   125   32.5% 226   69    19    69.3  39.9  54.6  53.5 
## # ℹ 17 more rows
## # ℹ 27 more variables: `Batting Stats` <chr>, `Batting Stats` <chr>,
## #   `Batting Stats` <chr>, `Batting Stats` <chr>, `Batting Stats` <chr>,
## #   `Batting Stats` <chr>, `Batting Stats` <chr>, `Batting Stats` <chr>,
## #   `Batting Stats` <chr>, `Batting Stats` <chr>, `Batting Stats` <chr>,
## #   `Batting Stats` <chr>, `Batting Stats` <chr>, `Pitching Stats` <chr>,
## #   `Pitching Stats` <chr>, `Pitching Stats` <chr>, `Pitching Stats` <chr>, …
```
…
